%YAML 1.1
%TAG !u! tag:unity3d.com,2011:
--- !u!1 &304540595726724083
GameObject:
  m_ObjectHideFlags: 0
  m_CorrespondingSourceObject: {fileID: 0}
  m_PrefabInstance: {fileID: 0}
  m_PrefabAsset: {fileID: 0}
  serializedVersion: 6
  m_Component:
  - component: {fileID: 6736403715080353345}
  m_Layer: 0
  m_Name: arbrebrul1
  m_TagString: Untagged
  m_Icon: {fileID: 0}
  m_NavMeshLayer: 0
  m_StaticEditorFlags: 0
  m_IsActive: 1
--- !u!4 &6736403715080353345
Transform:
  m_ObjectHideFlags: 0
  m_CorrespondingSourceObject: {fileID: 0}
  m_PrefabInstance: {fileID: 0}
  m_PrefabAsset: {fileID: 0}
  m_GameObject: {fileID: 304540595726724083}
  m_LocalRotation: {x: 0, y: 0, z: 0, w: 1}
  m_LocalPosition: {x: 0, y: 0, z: 0}
  m_LocalScale: {x: 27.51, y: 27.51, z: 27.51}
  m_Children:
  - {fileID: 1055277431094432991}
  m_Father: {fileID: 0}
  m_RootOrder: 0
  m_LocalEulerAnglesHint: {x: 0, y: 0, z: 0}
--- !u!1001 &5467279740467904453
PrefabInstance:
  m_ObjectHideFlags: 0
  serializedVersion: 2
  m_Modification:
    m_TransformParent: {fileID: 6736403715080353345}
    m_Modifications:
    - target: {fileID: -927199367670048503, guid: cf9e86a9f4ef15442881ca9503d64cdc,
        type: 3}
      propertyPath: m_Name
      value: arbreBrule_01
      objectReference: {fileID: 0}
    - target: {fileID: -4216859302048453862, guid: cf9e86a9f4ef15442881ca9503d64cdc,
        type: 3}
      propertyPath: m_LocalPosition.x
      value: 0
      objectReference: {fileID: 0}
    - target: {fileID: -4216859302048453862, guid: cf9e86a9f4ef15442881ca9503d64cdc,
        type: 3}
      propertyPath: m_LocalPosition.y
      value: 0.0405
      objectReference: {fileID: 0}
    - target: {fileID: -4216859302048453862, guid: cf9e86a9f4ef15442881ca9503d64cdc,
        type: 3}
      propertyPath: m_LocalPosition.z
      value: 0
      objectReference: {fileID: 0}
    - target: {fileID: -4216859302048453862, guid: cf9e86a9f4ef15442881ca9503d64cdc,
        type: 3}
      propertyPath: m_LocalRotation.x
      value: -0.7071068
      objectReference: {fileID: 0}
    - target: {fileID: -4216859302048453862, guid: cf9e86a9f4ef15442881ca9503d64cdc,
        type: 3}
      propertyPath: m_LocalRotation.y
      value: -0
      objectReference: {fileID: 0}
    - target: {fileID: -4216859302048453862, guid: cf9e86a9f4ef15442881ca9503d64cdc,
        type: 3}
      propertyPath: m_LocalRotation.z
      value: -0
      objectReference: {fileID: 0}
    - target: {fileID: -4216859302048453862, guid: cf9e86a9f4ef15442881ca9503d64cdc,
        type: 3}
      propertyPath: m_LocalRotation.w
      value: 0.7071067
      objectReference: {fileID: 0}
    - target: {fileID: -4216859302048453862, guid: cf9e86a9f4ef15442881ca9503d64cdc,
        type: 3}
      propertyPath: m_RootOrder
      value: 0
      objectReference: {fileID: 0}
    - target: {fileID: -4216859302048453862, guid: cf9e86a9f4ef15442881ca9503d64cdc,
        type: 3}
      propertyPath: m_LocalEulerAnglesHint.x
      value: 0
      objectReference: {fileID: 0}
    - target: {fileID: -4216859302048453862, guid: cf9e86a9f4ef15442881ca9503d64cdc,
        type: 3}
      propertyPath: m_LocalEulerAnglesHint.y
      value: 0
      objectReference: {fileID: 0}
    - target: {fileID: -4216859302048453862, guid: cf9e86a9f4ef15442881ca9503d64cdc,
        type: 3}
      propertyPath: m_LocalEulerAnglesHint.z
      value: 0
      objectReference: {fileID: 0}
    - target: {fileID: -4216859302048453862, guid: cf9e86a9f4ef15442881ca9503d64cdc,
        type: 3}
      propertyPath: m_LocalScale.x
      value: 1
      objectReference: {fileID: 0}
    - target: {fileID: -4216859302048453862, guid: cf9e86a9f4ef15442881ca9503d64cdc,
        type: 3}
      propertyPath: m_LocalScale.y
      value: 1
      objectReference: {fileID: 0}
    - target: {fileID: -4216859302048453862, guid: cf9e86a9f4ef15442881ca9503d64cdc,
        type: 3}
      propertyPath: m_LocalScale.z
      value: 1
      objectReference: {fileID: 0}
    m_RemovedComponents: []
  m_SourcePrefab: {fileID: 100100000, guid: cf9e86a9f4ef15442881ca9503d64cdc, type: 3}
--- !u!4 &1055277431094432991 stripped
Transform:
  m_CorrespondingSourceObject: {fileID: -4216859302048453862, guid: cf9e86a9f4ef15442881ca9503d64cdc,
    type: 3}
  m_PrefabInstance: {fileID: 5467279740467904453}
  m_PrefabAsset: {fileID: 0}
