%YAML 1.1
%TAG !u! tag:unity3d.com,2011:
--- !u!1 &4978127360926812761
GameObject:
  m_ObjectHideFlags: 0
  m_CorrespondingSourceObject: {fileID: 0}
  m_PrefabInstance: {fileID: 0}
  m_PrefabAsset: {fileID: 0}
  serializedVersion: 6
  m_Component:
  - component: {fileID: 5742120889685981666}
  m_Layer: 0
  m_Name: branche1
  m_TagString: Untagged
  m_Icon: {fileID: 0}
  m_NavMeshLayer: 0
  m_StaticEditorFlags: 0
  m_IsActive: 1
--- !u!4 &5742120889685981666
Transform:
  m_ObjectHideFlags: 0
  m_CorrespondingSourceObject: {fileID: 0}
  m_PrefabInstance: {fileID: 0}
  m_PrefabAsset: {fileID: 0}
  m_GameObject: {fileID: 4978127360926812761}
  m_LocalRotation: {x: 0, y: 0, z: 0, w: 1}
  m_LocalPosition: {x: 0, y: 0, z: 0}
  m_LocalScale: {x: 1, y: 1, z: 1}
  m_Children:
  - {fileID: 1080434732544760545}
  m_Father: {fileID: 0}
  m_RootOrder: 0
  m_LocalEulerAnglesHint: {x: 0, y: 0, z: 0}
--- !u!1001 &5441700082200785403
PrefabInstance:
  m_ObjectHideFlags: 0
  serializedVersion: 2
  m_Modification:
    m_TransformParent: {fileID: 5742120889685981666}
    m_Modifications:
    - target: {fileID: -927199367670048503, guid: 3ffa2f2d9ea14eb4daddaffb4b6a69be,
        type: 3}
      propertyPath: m_Name
      value: branche_01
      objectReference: {fileID: 0}
    - target: {fileID: -4216859302048453862, guid: 3ffa2f2d9ea14eb4daddaffb4b6a69be,
        type: 3}
      propertyPath: m_LocalPosition.x
      value: 0
      objectReference: {fileID: 0}
    - target: {fileID: -4216859302048453862, guid: 3ffa2f2d9ea14eb4daddaffb4b6a69be,
        type: 3}
      propertyPath: m_LocalPosition.y
      value: 0
      objectReference: {fileID: 0}
    - target: {fileID: -4216859302048453862, guid: 3ffa2f2d9ea14eb4daddaffb4b6a69be,
        type: 3}
      propertyPath: m_LocalPosition.z
      value: 0
      objectReference: {fileID: 0}
    - target: {fileID: -4216859302048453862, guid: 3ffa2f2d9ea14eb4daddaffb4b6a69be,
        type: 3}
      propertyPath: m_LocalRotation.x
      value: -0.32515436
      objectReference: {fileID: 0}
    - target: {fileID: -4216859302048453862, guid: 3ffa2f2d9ea14eb4daddaffb4b6a69be,
        type: 3}
      propertyPath: m_LocalRotation.y
      value: -0
      objectReference: {fileID: 0}
    - target: {fileID: -4216859302048453862, guid: 3ffa2f2d9ea14eb4daddaffb4b6a69be,
        type: 3}
      propertyPath: m_LocalRotation.z
      value: -0
      objectReference: {fileID: 0}
    - target: {fileID: -4216859302048453862, guid: 3ffa2f2d9ea14eb4daddaffb4b6a69be,
        type: 3}
      propertyPath: m_LocalRotation.w
      value: 0.94566095
      objectReference: {fileID: 0}
    - target: {fileID: -4216859302048453862, guid: 3ffa2f2d9ea14eb4daddaffb4b6a69be,
        type: 3}
      propertyPath: m_RootOrder
      value: 0
      objectReference: {fileID: 0}
    - target: {fileID: -4216859302048453862, guid: 3ffa2f2d9ea14eb4daddaffb4b6a69be,
        type: 3}
      propertyPath: m_LocalEulerAnglesHint.x
      value: 0
      objectReference: {fileID: 0}
    - target: {fileID: -4216859302048453862, guid: 3ffa2f2d9ea14eb4daddaffb4b6a69be,
        type: 3}
      propertyPath: m_LocalEulerAnglesHint.y
      value: 0
      objectReference: {fileID: 0}
    - target: {fileID: -4216859302048453862, guid: 3ffa2f2d9ea14eb4daddaffb4b6a69be,
        type: 3}
      propertyPath: m_LocalEulerAnglesHint.z
      value: 0
      objectReference: {fileID: 0}
    - target: {fileID: -4216859302048453862, guid: 3ffa2f2d9ea14eb4daddaffb4b6a69be,
        type: 3}
      propertyPath: m_LocalScale.x
      value: 7
      objectReference: {fileID: 0}
    - target: {fileID: -4216859302048453862, guid: 3ffa2f2d9ea14eb4daddaffb4b6a69be,
        type: 3}
      propertyPath: m_LocalScale.y
      value: 7
      objectReference: {fileID: 0}
    - target: {fileID: -4216859302048453862, guid: 3ffa2f2d9ea14eb4daddaffb4b6a69be,
        type: 3}
      propertyPath: m_LocalScale.z
      value: 7
      objectReference: {fileID: 0}
    m_RemovedComponents: []
  m_SourcePrefab: {fileID: 100100000, guid: 3ffa2f2d9ea14eb4daddaffb4b6a69be, type: 3}
--- !u!4 &1080434732544760545 stripped
Transform:
  m_CorrespondingSourceObject: {fileID: -4216859302048453862, guid: 3ffa2f2d9ea14eb4daddaffb4b6a69be,
    type: 3}
  m_PrefabInstance: {fileID: 5441700082200785403}
  m_PrefabAsset: {fileID: 0}
