%YAML 1.1
%TAG !u! tag:unity3d.com,2011:
--- !u!1001 &1015118001654916610
PrefabInstance:
  m_ObjectHideFlags: 0
  serializedVersion: 2
  m_Modification:
    m_TransformParent: {fileID: 0}
    m_Modifications:
    - target: {fileID: 3749315678060501775, guid: a81add6cdf5391344a405da762b5626e,
        type: 3}
      propertyPath: m_Name
      value: tronccouche2
      objectReference: {fileID: 0}
    - target: {fileID: 713682382988201206, guid: a81add6cdf5391344a405da762b5626e,
        type: 3}
      propertyPath: m_LocalPosition.x
      value: 0
      objectReference: {fileID: 0}
    - target: {fileID: 713682382988201206, guid: a81add6cdf5391344a405da762b5626e,
        type: 3}
      propertyPath: m_LocalPosition.y
      value: 0
      objectReference: {fileID: 0}
    - target: {fileID: 713682382988201206, guid: a81add6cdf5391344a405da762b5626e,
        type: 3}
      propertyPath: m_LocalPosition.z
      value: 0
      objectReference: {fileID: 0}
    - target: {fileID: 713682382988201206, guid: a81add6cdf5391344a405da762b5626e,
        type: 3}
      propertyPath: m_LocalRotation.x
      value: 0
      objectReference: {fileID: 0}
    - target: {fileID: 713682382988201206, guid: a81add6cdf5391344a405da762b5626e,
        type: 3}
      propertyPath: m_LocalRotation.y
      value: 0
      objectReference: {fileID: 0}
    - target: {fileID: 713682382988201206, guid: a81add6cdf5391344a405da762b5626e,
        type: 3}
      propertyPath: m_LocalRotation.z
      value: 0
      objectReference: {fileID: 0}
    - target: {fileID: 713682382988201206, guid: a81add6cdf5391344a405da762b5626e,
        type: 3}
      propertyPath: m_LocalRotation.w
      value: 1
      objectReference: {fileID: 0}
    - target: {fileID: 713682382988201206, guid: a81add6cdf5391344a405da762b5626e,
        type: 3}
      propertyPath: m_RootOrder
      value: 0
      objectReference: {fileID: 0}
    - target: {fileID: 713682382988201206, guid: a81add6cdf5391344a405da762b5626e,
        type: 3}
      propertyPath: m_LocalEulerAnglesHint.x
      value: 0
      objectReference: {fileID: 0}
    - target: {fileID: 713682382988201206, guid: a81add6cdf5391344a405da762b5626e,
        type: 3}
      propertyPath: m_LocalEulerAnglesHint.y
      value: 0
      objectReference: {fileID: 0}
    - target: {fileID: 713682382988201206, guid: a81add6cdf5391344a405da762b5626e,
        type: 3}
      propertyPath: m_LocalEulerAnglesHint.z
      value: 0
      objectReference: {fileID: 0}
    m_RemovedComponents: []
  m_SourcePrefab: {fileID: 100100000, guid: a81add6cdf5391344a405da762b5626e, type: 3}
