%YAML 1.1
%TAG !u! tag:unity3d.com,2011:
--- !u!21 &2100000
Material:
  serializedVersion: 6
  m_ObjectHideFlags: 0
  m_CorrespondingSourceObject: {fileID: 0}
  m_PrefabInstance: {fileID: 0}
  m_PrefabAsset: {fileID: 0}
  m_Name: Unlit_SpecialFX_Liquid
  m_Shader: {fileID: 4800000, guid: 3657aba9cc92efc4e983722f1217f8db, type: 3}
  m_ShaderKeywords: 
  m_LightmapFlags: 4
  m_EnableInstancingVariants: 0
  m_DoubleSidedGI: 0
  m_CustomRenderQueue: -1
  stringTagMap: {}
  disabledShaderPasses: []
  m_SavedProperties:
    serializedVersion: 3
    m_TexEnvs:
    - _MainTex:
        m_Texture: {fileID: 0}
        m_Scale: {x: 0.14324, y: 0.14324}
        m_Offset: {x: 0, y: 0}
    m_Floats:
    - _FillAmount: 0.42
    - _Rim: 0.0007
    - _RimPower: 0
    - _WobbleX: 0
    - _WobbleZ: 0
    m_Colors:
    - _FoamColor: {r: 1, g: 1, b: 1, a: 1}
    - _RimColor: {r: 1, g: 1, b: 1, a: 1}
    - _Tint: {r: 0, g: 0.91849303, b: 1, a: 1}
    - _TopColor: {r: 1, g: 1, b: 1, a: 1}
