{
    "name": "Aura2_Core",
    "references": [],
    "includePlatforms": [],
    "excludePlatforms": [
        "Android",
        "iOS",
        "Nintendo3DS",
        "PSMobile",
        "PSVita",
        "Tizen",
        "tvOS",
        "WebGL",
        "WiiU"
    ]
}